%YAML 1.1
%TAG !u! tag:unity3d.com,2011:
--- !u!114 &11400000
MonoBehaviour:
  m_ObjectHideFlags: 0
  m_CorrespondingSourceObject: {fileID: 0}
  m_PrefabInstance: {fileID: 0}
  m_PrefabAsset: {fileID: 0}
  m_GameObject: {fileID: 0}
  m_Enabled: 1
  m_EditorHideFlags: 0
  m_Script: {fileID: 11500000, guid: d7fd9488000d3734a9e00ee676215985, type: 3}
  m_Name: Laser (1) Profile
  m_EditorClassIdentifier: 
  components:
  - {fileID: 611417800771782398}
  - {fileID: 6305398511573642349}
--- !u!114 &611417800771782398
MonoBehaviour:
  m_ObjectHideFlags: 3
  m_CorrespondingSourceObject: {fileID: 0}
  m_PrefabInstance: {fileID: 0}
  m_PrefabAsset: {fileID: 0}
  m_GameObject: {fileID: 0}
  m_Enabled: 1
  m_EditorHideFlags: 0
  m_Script: {fileID: 11500000, guid: 0b2db86121404754db890f4c8dfe81b2, type: 3}
  m_Name: Bloom
  m_EditorClassIdentifier: 
  active: 1
  m_AdvancedMode: 0
  threshold:
    m_OverrideState: 1
    m_Value: 0.9
    min: 0
  intensity:
    m_OverrideState: 1
    m_Value: 15
    min: 0
  scatter:
    m_OverrideState: 0
    m_Value: 0.7
    min: 0
    max: 1
  clamp:
    m_OverrideState: 0
    m_Value: 65472
    min: 0
  tint:
    m_OverrideState: 1
    m_Value: {r: 1, g: 0, b: 0, a: 1}
    hdr: 0
    showAlpha: 0
    showEyeDropper: 1
  highQualityFiltering:
    m_OverrideState: 0
    m_Value: 0
  dirtTexture:
    m_OverrideState: 0
    m_Value: {fileID: 0}
  dirtIntensity:
    m_OverrideState: 0
    m_Value: 0
    min: 0
--- !u!114 &6305398511573642349
MonoBehaviour:
  m_ObjectHideFlags: 3
  m_CorrespondingSourceObject: {fileID: 0}
  m_PrefabInstance: {fileID: 0}
  m_PrefabAsset: {fileID: 0}
  m_GameObject: {fileID: 0}
  m_Enabled: 1
  m_EditorHideFlags: 0
  m_Script: {fileID: 11500000, guid: ccf1aba9553839d41ae37dd52e9ebcce, type: 3}
  m_Name: MotionBlur
  m_EditorClassIdentifier: 
  active: 1
  m_AdvancedMode: 0
  mode:
    m_OverrideState: 0
    m_Value: 0
  quality:
    m_OverrideState: 1
    m_Value: 0
  intensity:
    m_OverrideState: 1
    m_Value: 0.503
    min: 0
    max: 1
  clamp:
    m_OverrideState: 0
    m_Value: 0.05
    min: 0
    max: 0.2
