%YAML 1.1
%TAG !u! tag:unity3d.com,2011:
--- !u!1045 &1
EditorBuildSettings:
  m_ObjectHideFlags: 0
  serializedVersion: 2
  m_Scenes:
  - enabled: 1
    path: Assets/Scenes/Title.unity
    guid: 0a45567034b7a3546a95b3ab1feca1e2
  - enabled: 1
    path: Assets/Scenes/Lvel.unity
    guid: b921540b7b372fd42a0049af5c013de8
  m_configObjects: {}
